<COLLADA xmlns="http://www.collada.org/2005/11/COLLADASchema" version="1.4.1">
  <asset>
    <created>2016-01-01T16:13:23.158292</created>
    <modified>2016-01-01T16:13:23.158328</modified>
    <up_axis>Z_UP</up_axis>
    <unit meter="0.001" name="millimeter"/>
  </asset>
  <library_effects>
    <effect name="effect0" id="effect0">
      <profile_COMMON>
        <technique sid="common">
          <phong>
            <emission>
              <color>0.0 0.0 0.0 1.0</color>
            </emission>
            <ambient>
              <color>0.0 0.0 0.0 1.0</color>
            </ambient>
            <diffuse>
              <color>0.7 0.7 0.7 1.0</color>
            </diffuse>
            <specular>
              <color>1 1 1 1.0</color>
            </specular>
            <shininess>
              <float>0.0</float>
            </shininess>
            <reflective>
              <color>0.0 0.0 0.0 1.0</color>
            </reflective>
            <reflectivity>
              <float>0.0</float>
            </reflectivity>
            <transparent>
              <color>0.0 0.0 0.0 1.0</color>
            </transparent>
            <transparency>
              <float>1.0</float>
            </transparency>
          </phong>
        </technique>
        <extra>
          <technique profile="GOOGLEEARTH">
            <double_sided>0</double_sided>
          </technique>
        </extra>
      </profile_COMMON>
    </effect>
  </library_effects>
  <library_geometries>
    <geometry id="geometry0" name="Extrude">
      <mesh>
        <source id="cubenormals-array0">
          <float_array count="912" id="cubenormals-array0-array">-2.908689 -2.83451e-07 0 -2.908689 -2.83451e-07 0 -2.908689 -2.83451e-07 0 -2.908689 -2.83451e-07 0 -2.908689 -2.83451e-07 0 -2.908689 -2.83451e-07 0 -2.908689 -2.83451e-07 0 -2.908689 -2.83451e-07 0 -1.427656 -1.427656 0 -1.427656 -1.427656 0 -1.427656 -1.427656 0 -1.427656 -1.427656 0 -1.427656 -1.427656 0 -1.427656 -1.427656 0 -1.427656 -1.427656 0 -1.427656 -1.427656 0 0 -87.83883 0 0 -87.83883 0 4.304734e-07 -4.781352 -0 4.304734e-07 -4.781352 -0 4.304734e-07 -4.781352 -0 4.304734e-07 -4.781352 -0 4.304734e-07 -4.781352 -0 4.304734e-07 -4.781352 -0 4.304734e-07 -4.781352 -0 4.304734e-07 -4.781352 -0 4.304734e-07 -4.781352 -0 4.304734e-07 -4.781352 -0 4.304734e-07 -4.781352 -0 4.304734e-07 -4.781352 -0 4.304734e-07 -4.781352 -0 4.304734e-07 -4.781352 -0 0 -12.14939 0 0 -12.14939 0 -4.304777e-07 -4.781547 0 -4.304777e-07 -4.781547 0 -4.304777e-07 -4.781547 0 -4.304777e-07 -4.781547 0 -4.304777e-07 -4.781547 0 -4.304777e-07 -4.781547 0 -4.304777e-07 -4.781547 0 -4.304777e-07 -4.781547 0 -4.304777e-07 -4.781547 0 -4.304777e-07 -4.781547 0 -4.304777e-07 -4.781547 0 -4.304777e-07 -4.781547 0 -4.304777e-07 -4.781547 0 -4.304777e-07 -4.781547 0 0 -59.46983 0 0 -59.46983 0 1.439928e-05 -147.7614 -0 1.439928e-05 -147.7614 -0 1.439928e-05 -147.7614 -0 1.439928e-05 -147.7614 -0 1.439928e-05 -147.7614 -0 1.439928e-05 -147.7614 -0 1.439928e-05 -147.7614 -0 1.439928e-05 -147.7614 -0 1.439928e-05 -147.7614 -0 1.439928e-05 -147.7614 -0 1.439928e-05 -147.7614 -0 1.439928e-05 -147.7614 -0 72.52493 -72.52492 -0 72.52493 -72.52492 -0 72.52493 -72.52492 -0 72.52493 -72.52492 -0 72.52493 -72.52492 -0 72.52493 -72.52492 -0 72.52493 -72.52492 -0 72.52493 -72.52492 -0 72.52493 -72.52492 -0 72.52493 -72.52492 -0 72.52493 -72.52492 -0 72.52493 -72.52492 -0 218.3559 24.21835 -0 218.3559 24.21835 -0 218.3559 24.21835 -0 218.3559 24.21835 -0 218.3559 24.21835 -0 218.3559 24.21835 -0 218.3559 24.21835 -0 218.3559 24.21835 -0 218.3559 24.21835 -0 218.3559 24.21835 -0 218.3559 24.21835 -0 218.3559 24.21835 -0 218.3559 24.21835 -0 218.3559 24.21835 -0 218.3559 24.21835 -0 218.3559 24.21835 -0 218.3559 24.21835 -0 218.3559 24.21835 -0 218.3559 24.21835 -0 218.3559 24.21835 -0 0 63.52579 0 0 63.52579 0 -4.304734e-07 4.781352 -0 -4.304734e-07 4.781352 -0 -4.304734e-07 4.781352 -0 -4.304734e-07 4.781352 -0 -4.304734e-07 4.781352 -0 -4.304734e-07 4.781352 -0 -4.304734e-07 4.781352 -0 -4.304734e-07 4.781352 -0 -4.304734e-07 4.781352 -0 -4.304734e-07 4.781352 -0 -4.304734e-07 4.781352 -0 -4.304734e-07 4.781352 -0 -4.304734e-07 4.781352 -0 -4.304734e-07 4.781352 -0 -0 11.44579 -0 -0 11.44579 -0 4.304734e-07 4.781352 -0 4.304734e-07 4.781352 -0 4.304734e-07 4.781352 -0 4.304734e-07 4.781352 -0 4.304734e-07 4.781352 -0 4.304734e-07 4.781352 -0 4.304734e-07 4.781352 -0 4.304734e-07 4.781352 -0 4.304734e-07 4.781352 -0 4.304734e-07 4.781352 -0 4.304734e-07 4.781352 -0 4.304734e-07 4.781352 -0 4.304734e-07 4.781352 -0 4.304734e-07 4.781352 -0 0 85.46905 0 0 85.46905 0 -5.715 0 0 -5.715 0 0 -0 9.525 -0 -0 9.525 -0 5.715 -0 -0 5.715 -0 -0 0 85.46905 0 0 85.46905 0 -2.83451e-07 2.908689 -0 -2.83451e-07 2.908689 -0 -2.83451e-07 2.908689 -0 -2.83451e-07 2.908689 -0 -2.83451e-07 2.908689 -0 -2.83451e-07 2.908689 -0 -2.83451e-07 2.908689 -0 -2.83451e-07 2.908689 -0 -1.427656 1.427656 -0 -1.427656 1.427656 -0 -1.427656 1.427656 -0 -1.427656 1.427656 -0 -1.427656 1.427656 -0 -1.427656 1.427656 -0 -1.427656 1.427656 -0 -1.427656 1.427656 -0 -298.45 0 0 -298.45 0 0 0 0 -1 0 0 -1 0 0 -1 0 0 -1 0 0 -1 0 0 -1 0 0 -1 0 0 -1 0 0 -1 0 0 -1 0 0 -1 0 0 -1 0 0 -1 0 0 -1 0 0 -1 0 0 -1 0 0 -1 0 0 -1 0 0 -1 0 0 -1 0 0 -1 0 0 -1 0 0 -1 0 0 -1 0 0 -1 0 0 -1 0 0 -1 0 0 -1 0 0 -1 0 0 -1 0 0 -1 0 0 -1 0 0 -1 0 0 -1 0 0 -1 0 0 -1 0 0 -1 0 0 -1 0 0 -1 0 0 -1 0 0 -1 0 0 -1 0 0 -1 0 0 -1 0 0 -1 0 0 -1 0 0 -1 0 0 -1 0 0 -1 0 0 -1 0 0 -1 0 0 -1 0 0 -1 0 0 -1 0 0 -1 0 0 -1 0 0 -1 0 0 -1 0 0 -1 0 0 -1 0 0 -1 0 0 -1 0 0 -1 0 0 -1 0 0 -1 0 0 -1 0 0 -1 0 0 -1 0 0 -1 0 0 -1 0 0 -1 0 0 -1 0 0 -1 0 0 -1 0 0 -1 -0 -0 1 -0 -0 1 -0 -0 1 -0 -0 1 -0 -0 1 -0 -0 1 -0 -0 1 -0 -0 1 -0 -0 1 -0 -0 1 -0 -0 1 -0 -0 1 -0 -0 1 -0 -0 1 -0 -0 1 -0 -0 1 -0 -0 1 -0 -0 1 -0 -0 1 -0 -0 1 -0 -0 1 -0 -0 1 -0 -0 1 -0 -0 1 -0 -0 1 -0 -0 1 -0 -0 1 -0 -0 1 -0 -0 1 -0 -0 1 -0 -0 1 -0 -0 1 -0 -0 1 -0 -0 1 -0 -0 1 -0 -0 1 -0 -0 1 -0 -0 1 -0 -0 1 -0 -0 1 -0 -0 1 -0 -0 1 -0 -0 1 -0 -0 1 -0 -0 1 -0 -0 1 -0 -0 1 -0 -0 1 -0 -0 1 -0 -0 1 -0 -0 1 -0 -0 1 -0 -0 1 -0 -0 1 -0 -0 1 -0 -0 1 -0 -0 1 -0 -0 1 -0 -0 1 -0 -0 1 -0 -0 1 -0 -0 1 -0 -0 1 -0 -0 1 -0 -0 1 -0 -0 1 -0 -0 1 -0 -0 1 -0 -0 1 -0 -0 1 -0 -0 1 -0 -0 1 -0 -0 1 -0 -0 1 -0 -0 1</float_array>
          <technique_common>
            <accessor count="304" source="#cubenormals-array0-array" stride="3">
              <param type="float" name="X"/>
              <param type="float" name="Y"/>
              <param type="float" name="Z"/>
            </accessor>
          </technique_common>
        </source>
        <source id="cubeverts-array0">
          <float_array count="462" id="cubeverts-array0-array">-151.685 -149.795 32.73 -151.685 -149.795 -26.85 -151.5911 -150.5614 -26.85 -151.5911 -150.5614 32.73 -151.3478 -151.2189 32.73 -151.3478 -151.2189 -26.85 -151.0702 -151.6728 32.73 -150.7551 -152.0401 32.73 -151.0702 -151.6728 -26.85 -150.7551 -152.0401 -26.85 -150.1953 -152.4858 32.73 -150.1953 -152.4858 -26.85 -149.5275 -152.8026 32.73 -149.5275 -152.8026 -26.85 -149.0383 -152.9257 32.73 -148.51 -152.97 32.73 -149.0383 -152.9257 -26.85 -148.51 -152.97 -26.85 -60.71508 -152.97 -26.85 -60.71508 -152.97 32.73 -59.99177 -152.8865 -26.85 -59.99177 -152.8865 32.73 -59.28908 -152.6318 32.73 -59.28908 -152.6318 -26.85 -58.65696 -152.2126 32.73 -58.65696 -152.2126 -26.85 -58.14066 -151.6532 32.73 -58.14066 -151.6532 -26.85 -57.77444 -150.9922 32.73 -57.77444 -150.9922 -26.85 -57.59784 -150.3978 32.73 -57.59784 -150.3978 -26.85 -57.54008 -149.795 32.73 -57.54008 -149.795 -26.85 -51.76983 -149.795 -26.85 -51.76983 -149.795 32.73 -49.3181 -152.8865 -26.85 -48.59483 -152.97 -26.85 -48.59483 -152.97 32.73 -49.3181 -152.8865 32.73 -50.02076 -152.6318 -26.85 -50.02076 -152.6318 32.73 -50.65288 -152.2127 -26.85 -50.65288 -152.2127 32.73 -51.16919 -151.6533 -26.85 -51.16919 -151.6533 32.73 -51.53545 -150.9922 -26.85 -51.53545 -150.9922 32.73 -51.71207 -150.3979 -26.85 -51.71207 -150.3979 32.73 10.875 -152.97 -26.85 10.875 -152.97 32.73 36.07931 -150.9885 -26.85 36.07931 -150.9885 32.73 59.62307 -145.4268 32.73 59.62307 -145.4268 -26.85 82.1641 -136.3601 32.73 82.1641 -136.3601 -26.85 103.0255 -124.0535 32.73 114.6591 -115.1438 32.73 103.0255 -124.0535 -26.85 114.6591 -115.1438 -26.85 124.9243 -105.7293 32.73 124.9243 -105.7293 -26.85 140.4618 -87.70979 -26.85 140.4618 -87.70979 32.73 152.9684 -67.9947 32.73 162.6807 -46.17313 32.73 152.9684 -67.9947 -26.85 162.6807 -46.17313 -26.85 169.0325 -23.3136 32.73 169.0325 -23.3136 -26.85 171.367 -7.70443 32.73 171.367 -7.70443 -26.85 172.165 8.32 32.73 172.165 8.32 -26.85 167.9802 31.04087 -26.85 167.9802 31.04087 32.73 160.3979 53.39182 32.73 160.3979 53.39182 -26.85 149.9238 73.92048 32.73 149.9238 73.92048 -26.85 136.649 92.72451 32.73 136.649 92.72451 -26.85 120.858 109.4242 32.73 120.858 109.4242 -26.85 102.8892 123.6857 32.73 102.8892 123.6857 -26.85 83.12681 135.2301 32.73 59.57771 144.6091 32.73 83.12681 135.2301 -26.85 35.80452 150.0424 32.73 59.57771 144.6091 -26.85 11.858 151.83 32.73 35.80452 150.0424 -26.85 11.858 151.83 -26.85 -51.66779 151.83 -26.85 -51.66779 151.83 32.73 -52.3911 151.7465 -26.85 -52.3911 151.7465 32.73 -53.09379 151.4918 32.73 -53.09379 151.4918 -26.85 -53.72592 151.0726 32.73 -53.72592 151.0726 -26.85 -54.24221 150.5132 32.73 -54.24221 150.5132 -26.85 -54.60844 149.8522 32.73 -54.60844 149.8522 -26.85 -54.78504 149.2578 32.73 -54.78504 149.2578 -26.85 -54.84279 148.655 32.73 -54.84279 148.655 -26.85 -59.90945 148.655 32.73 -59.90945 148.655 -26.85 -62.36114 151.7465 -26.85 -63.08445 151.83 -26.85 -63.08445 151.83 32.73 -62.36114 151.7465 32.73 -61.65845 151.4918 -26.85 -61.65845 151.4918 32.73 -61.02632 151.0726 -26.85 -61.02632 151.0726 32.73 -60.51003 150.5132 -26.85 -60.51003 150.5132 32.73 -60.1438 149.8522 -26.85 -60.1438 149.8522 32.73 -59.9672 149.2578 -26.85 -59.9672 149.2578 32.73 -135.985 151.83 -26.85 -135.985 151.83 32.73 -135.985 146.115 -26.85 -135.985 146.115 32.73 -145.51 146.115 -26.85 -145.51 146.115 32.73 -145.51 151.83 -26.85 -145.51 151.83 32.73 -148.51 151.83 -26.85 -148.51 151.83 32.73 -149.2764 151.7361 -26.85 -149.2764 151.7361 32.73 -149.9339 151.4928 32.73 -149.9339 151.4928 -26.85 -150.3878 151.2152 32.73 -150.3878 151.2152 -26.85 -150.7551 150.9001 32.73 -150.7551 150.9001 -26.85 -151.2008 150.3403 32.73 -151.2008 150.3403 -26.85 -151.5176 149.6725 32.73 -151.5176 149.6725 -26.85 -151.6407 149.1833 32.73 -151.6407 149.1833 -26.85 -151.685 148.655 32.73 -151.685 148.655 -26.85</float_array>
          <technique_common>
            <accessor count="154" source="#cubeverts-array0-array" stride="3">
              <param type="float" name="X"/>
              <param type="float" name="Y"/>
              <param type="float" name="Z"/>
            </accessor>
          </technique_common>
        </source>
        <vertices id="cubeverts-array0-vertices">
          <input source="#cubeverts-array0" semantic="POSITION"/>
        </vertices>
        <triangles count="304" material="materialref">
          <input source="#cubenormals-array0" semantic="NORMAL" offset="1"/>
          <input source="#cubeverts-array0-vertices" semantic="VERTEX" offset="0"/>
          <p>0 0 1 0 2 0 3 1 0 1 2 1 4 2 3 2 5 2 6 3 4 3 5 3 3 4 2 4 5 4 7 5 6 5 8 5 6 6 5 6 8 6 7 7 8 7 9 7 10 8 7 8 9 8 10 9 9 9 11 9 12 10 10 10 13 10 14 11 12 11 13 11 10 12 11 12 13 12 15 13 14 13 16 13 14 14 13 14 16 14 15 15 16 15 17 15 17 16 18 16 19 16 17 17 19 17 15 17 19 18 18 18 20 18 21 19 19 19 20 19 22 20 21 20 23 20 21 21 20 21 23 21 24 22 22 22 25 22 22 23 23 23 25 23 26 24 24 24 27 24 24 25 25 25 27 25 28 26 26 26 29 26 26 27 27 27 29 27 30 28 28 28 31 28 28 29 29 29 31 29 32 30 30 30 33 30 30 31 31 31 33 31 34 32 35 32 32 32 33 33 34 33 32 33 36 34 37 34 38 34 36 35 38 35 39 35 40 36 39 36 41 36 40 37 36 37 39 37 42 38 41 38 43 38 42 39 40 39 41 39 44 40 43 40 45 40 44 41 42 41 43 41 46 42 45 42 47 42 46 43 44 43 45 43 48 44 47 44 49 44 48 45 46 45 47 45 34 46 49 46 35 46 34 47 48 47 49 47 50 48 51 48 38 48 37 49 50 49 38 49 51 50 50 50 52 50 53 51 51 51 52 51 54 52 53 52 55 52 53 53 52 53 55 53 56 54 54 54 57 54 58 55 56 55 57 55 54 56 55 56 57 56 59 57 58 57 60 57 58 58 57 58 60 58 59 59 60 59 61 59 62 60 59 60 63 60 59 61 61 61 63 61 62 62 63 62 64 62 65 63 62 63 64 63 66 64 65 64 64 64 67 65 66 65 68 65 66 66 64 66 68 66 67 67 68 67 69 67 70 68 67 68 71 68 67 69 69 69 71 69 72 70 70 70 73 70 70 71 71 71 73 71 74 72 72 72 75 72 72 73 73 73 75 73 74 74 75 74 76 74 77 75 74 75 76 75 78 76 77 76 79 76 77 77 76 77 79 77 80 78 78 78 81 78 82 79 80 79 81 79 78 80 79 80 81 80 82 81 81 81 83 81 84 82 82 82 85 82 82 83 83 83 85 83 86 84 84 84 87 84 88 85 86 85 87 85 84 86 85 86 87 86 89 87 88 87 90 87 88 88 87 88 90 88 91 89 89 89 92 89 89 90 90 90 92 90 93 91 91 91 94 91 91 92 92 92 94 92 93 93 94 93 95 93 95 94 96 94 97 94 95 95 97 95 93 95 97 96 96 96 98 96 99 97 97 97 98 97 100 98 99 98 101 98 99 99 98 99 101 99 102 100 100 100 103 100 104 101 102 101 103 101 100 102 101 102 103 102 104 103 103 103 105 103 106 104 104 104 107 104 108 105 106 105 107 105 104 106 105 106 107 106 108 107 107 107 109 107 110 108 108 108 111 108 108 109 109 109 111 109 112 110 110 110 111 110 112 111 111 111 113 111 114 112 115 112 116 112 114 113 116 113 117 113 118 114 117 114 119 114 118 115 114 115 117 115 120 116 119 116 121 116 120 117 118 117 119 117 122 118 121 118 123 118 122 119 120 119 121 119 124 120 123 120 125 120 124 121 122 121 123 121 126 122 125 122 127 122 126 123 124 123 125 123 113 124 127 124 112 124 113 125 126 125 127 125 115 126 128 126 129 126 115 127 129 127 116 127 128 128 130 128 131 128 128 129 131 129 129 129 131 130 130 130 132 130 133 131 131 131 132 131 133 132 132 132 134 132 135 133 133 133 134 133 136 134 137 134 135 134 134 135 136 135 135 135 137 136 136 136 138 136 139 137 137 137 138 137 140 138 139 138 141 138 139 139 138 139 141 139 142 140 140 140 143 140 140 141 141 141 143 141 144 142 142 142 145 142 142 143 143 143 145 143 146 144 144 144 145 144 146 145 145 145 147 145 148 146 146 146 149 146 146 147 147 147 149 147 150 148 148 148 151 148 148 149 149 149 151 149 152 150 150 150 153 150 150 151 151 151 153 151 153 152 1 152 0 152 153 153 0 153 152 153 18 154 23 154 20 154 18 155 25 155 23 155 18 156 33 156 25 156 81 157 69 157 68 157 81 158 79 158 69 158 122 159 124 159 126 159 83 160 68 160 64 160 120 161 126 161 113 161 83 162 81 162 68 162 120 163 122 163 126 163 85 164 64 164 63 164 85 165 83 165 64 165 13 166 17 166 16 166 115 167 114 167 118 167 115 168 118 168 120 168 11 169 17 169 13 169 115 170 120 170 113 170 130 171 115 171 113 171 130 172 33 172 1 172 130 173 113 173 33 173 128 174 115 174 130 174 132 175 130 175 1 175 76 176 73 176 71 176 76 177 75 177 73 177 153 178 132 178 1 178 2 179 8 179 5 179 2 180 9 180 8 180 2 181 11 181 9 181 79 182 71 182 69 182 136 183 132 183 153 183 2 184 17 184 11 184 79 185 76 185 71 185 136 186 134 186 132 186 1 187 18 187 17 187 1 188 33 188 18 188 138 189 136 189 153 189 1 190 17 190 2 190 149 191 153 191 151 191 40 192 37 192 36 192 87 193 61 193 60 193 87 194 63 194 61 194 147 195 138 195 153 195 147 196 153 196 149 196 42 197 37 197 40 197 87 198 85 198 63 198 90 199 60 199 57 199 143 200 141 200 138 200 145 201 138 201 147 201 145 202 143 202 138 202 90 203 87 203 60 203 92 204 90 204 57 204 92 205 57 205 55 205 48 206 42 206 44 206 48 207 44 207 46 207 94 208 92 208 55 208 94 209 55 209 52 209 34 210 37 210 42 210 34 211 42 211 48 211 34 212 50 212 37 212 95 213 50 213 34 213 95 214 52 214 50 214 95 215 94 215 52 215 111 216 95 216 34 216 111 217 34 217 33 217 96 218 95 218 111 218 101 219 98 219 96 219 105 220 109 220 107 220 103 221 111 221 109 221 103 222 96 222 111 222 103 223 101 223 96 223 103 224 109 224 105 224 31 225 27 225 25 225 31 226 29 226 27 226 113 227 111 227 33 227 33 228 31 228 25 228 21 229 22 229 19 229 22 230 24 230 19 230 24 231 32 231 19 231 66 232 67 232 80 232 67 233 78 233 80 233 127 234 125 234 123 234 65 235 66 235 82 235 112 236 127 236 121 236 66 237 80 237 82 237 127 238 123 238 121 238 62 239 65 239 84 239 65 240 82 240 84 240 14 241 15 241 12 241 119 242 117 242 116 242 121 243 119 243 116 243 12 244 15 244 10 244 112 245 121 245 116 245 112 246 116 246 131 246 0 247 32 247 131 247 32 248 112 248 131 248 131 249 116 249 129 249 0 250 131 250 133 250 70 251 72 251 77 251 72 252 74 252 77 252 0 253 133 253 152 253 4 254 6 254 3 254 6 255 7 255 3 255 7 256 10 256 3 256 67 257 70 257 78 257 152 258 133 258 137 258 10 259 15 259 3 259 70 260 77 260 78 260 133 261 135 261 137 261 15 262 19 262 0 262 19 263 32 263 0 263 152 264 137 264 139 264 3 265 15 265 0 265 150 266 152 266 148 266 39 267 38 267 41 267 58 268 59 268 86 268 59 269 62 269 86 269 152 270 139 270 146 270 148 271 152 271 146 271 41 272 38 272 43 272 62 273 84 273 86 273 56 274 58 274 88 274 139 275 140 275 142 275 146 276 139 276 144 276 139 277 142 277 144 277 58 278 86 278 88 278 56 279 88 279 89 279 54 280 56 280 89 280 45 281 43 281 49 281 47 282 45 282 49 282 54 283 89 283 91 283 53 284 54 284 91 284 43 285 38 285 35 285 49 286 43 286 35 286 38 287 51 287 35 287 35 288 51 288 93 288 51 289 53 289 93 289 53 290 91 290 93 290 35 291 93 291 110 291 32 292 35 292 110 292 110 293 93 293 97 293 97 294 99 294 100 294 106 295 108 295 104 295 108 296 110 296 102 296 110 297 97 297 102 297 97 298 100 298 102 298 104 299 108 299 102 299 24 300 26 300 30 300 26 301 28 301 30 301 32 302 110 302 112 302 24 303 30 303 32 303</p>
        </triangles>
      </mesh>
    </geometry>
  </library_geometries>
  <library_materials>
    <material name="mymaterial" id="material0">
      <instance_effect url="#effect0"/>
    </material>
  </library_materials>
  <library_visual_scenes>
    <visual_scene id="myscene">
      <node name="node0" id="node0">
        <instance_geometry url="#geometry0">
          <bind_material>
            <technique_common>
              <instance_material symbol="materialref" target="#material0"/>
            </technique_common>
          </bind_material>
        </instance_geometry>
      </node>
    </visual_scene>
  </library_visual_scenes>
  <scene>
    <instance_visual_scene url="#myscene"/>
  </scene>
</COLLADA>
